<?xml version="1.0" encoding="utf-8"?>
<!-- Generator: Adobe Illustrator 23.1.0, SVG Export Plug-In . SVG Version: 6.00 Build 0)  -->
<svg version="1.1" id="圖層_1" xmlns="http://www.w3.org/2000/svg" xmlns:xlink="http://www.w3.org/1999/xlink" x="0px" y="0px"
	 viewBox="0 0 397 137.7" style="enable-background:new 0 0 397 137.7;" xml:space="preserve">
<style type="text/css">
	.st0{clip-path:url(#SVGID_2_);fill:#3C3075;}
	.st1{clip-path:url(#SVGID_2_);fill:#C4677F;}
	.st2{clip-path:url(#SVGID_2_);fill:#E77D9B;}
</style>
<g>
	<defs>
		<rect id="SVGID_1_" width="397" height="137.7"/>
	</defs>
	<clipPath id="SVGID_2_">
		<use xlink:href="#SVGID_1_"  style="overflow:visible;"/>
	</clipPath>
	<path class="st0" d="M151.1,124.9c0.1-0.6,0.2-1.1,0.3-1.7l1.1,2.1c-0.1-0.7-0.3-1.3-0.4-2c2.8,3.2,4.5,7.1,4.9,11.4
		c0.3-2.7,0.3-5.3-0.1-7.8c1.4,1.9,3.2,3.6,5.3,5c-0.7-1.3-1.3-2.6-2-3.9c0.8,0.9,1.9,1.5,3.2,1.8c-3.5-3.5-2.5-9.5-4.1-14.2
		c-0.5-1.4-1.2-2.7-2-4c-1-1.6-2-3.1-3.4-4.3c-1.5-1.2-3.4-1.9-5.6-1.7c-1.4,0.1-2.9,0.7-4.3,1.3c-1.6,0.7-3.4,1.4-4.5,2.8
		c-0.7,0.8-1.1,1.7-1.5,2.7c-0.9,2,5.1,0.2,6.5,1.7c0.9,1,1.8,2.4,3.2,2.8C151.7,117.8,149.2,121.3,151.1,124.9"/>
	<path class="st1" d="M257,47.3c-4.3,14.7-9.9,41.8-9.5,60.6c0.1,5.4,0.8,11.8,5.5,14.5c2.5,1.4,5.5,1.4,8.3,1.3
		c17.5-0.5,43.9-4,61-7.8c7.3-1.6,14.6-3.5,22-3c9.2,0.6,18,4.7,27.2,4.7c0.8,0,1.7-0.1,2.3-0.6c1.3-1.3-0.2-3.5-1.7-4.7
		c-5.8-4.6-14.3-12.5-20.1-17.1c-0.9-0.7-1.9-1.5-3.1-1.7c-2.9-0.6-7.9,5.4-10.5,6.8c-2.7,1.4-5.8,1.4-8.9,1.4
		c-18.1,0-28.5,0-46.6,0c-0.7,0-1.4,0-1.9-0.5c-0.7-0.6-0.7-1.6-0.6-2.5c1.9-21.9,9.6-43.3,9.2-65.3L257,47.3z"/>
	<path class="st1" d="M98.6,110.4c-17,1.9-34.1,3.3-51.1,4.7c-2.7,0.2-5.3,0.4-8,0.7l-30.6,2.5c0.2,0.9,0.3,1.8,0.5,2.7
		c8.1,0.7,16.3,0.8,24.5,0.3c-0.2,1.1,0.7,2.1,1.7,2.4c1,0.3,2.1,0.2,3.2,0c15.7-2.5,31.6-3.1,47.4-1.8c4.8,0.4,9.6,1,14.4,0.9
		c4.2-0.1,8.4-0.7,12.5-1.3c4.7-0.7,9.5-1.4,14.2-2.1c5.9-0.9,12.3-2,16.6-6.2c1-1,1.9-2.2,2-3.6c0.2-1.8-1-3.5-2.6-4.5
		c-1.5-0.9-3.4-1.2-5.2-1.4c-6.8-0.5-11.8,1.7-18,3.8C113.6,109.7,105.4,109.6,98.6,110.4"/>
	<path class="st2" d="M258.2,2.4c10.1-4.2,23-3.1,30.4,4.9c6.1,6.5,7.6,15.9,7.7,24.8c0.4,25.4-8.4,50-10.6,75.3
		c-0.1,1-0.1,2.2,0.7,2.8c0.6,0.5,1.4,0.5,2.2,0.5c20.9,0,41.7,0,62.6,0c3.5,0,7.1,0,10.2-1.6c3-1.6,5.8-4.6,9.2-3.9
		c1.4,0.3,2.5,1.2,3.6,2l21.5,16.9c1,0.8,1.5,2.1,1.1,3.4c-0.5,1.5-1.9,1.7-3.2,1.7c-10.6,0-20.7-4.7-31.3-5.4
		c-8.5-0.5-17,1.7-25.3,3.5c-19.7,4.3-39.9,6.8-60.1,7.4c-3.3,0.1-6.7,0.1-9.6-1.5c-5.4-3.1-6.2-10.4-6.4-16.7
		c-0.4-21.7-0.2-43.3,0.8-65c0,0.6-3.8,3.4-4.4,4.1c-1.5,1.7-2.8,3.5-4,5.3c-2.3,3.6-4.2,7.5-6.3,11.2c-4.1,7.3-8.8,14.3-14,21
		c-4.3,5.4-10.6,8.9-13.3,15.3c-2.3,5.4-2.2,11.5-9.7,14.3c-4.8,1.9-10.3,1.3-14.8-1.3c-4-2.3-7.8-3.8-12.2-5.5
		c-5.7-2.2-11.8-3.1-17.9-2.5c-1.6,0.1-3.5,0.4-4.5,1.7c-0.8,1-0.9,2.4-1.2,3.7c-1.2,5.3-7.7,9.8-12.9,10.5
		c-0.9,0.1-1.9,0.2-2.7,0.7c-0.5,0.3-0.9,1-0.9,1.6c0,0.5-0.3,1-0.8,1.1c-3.9,0.8-8.5-1.9-12.5-1.5c-5,0.5-10.8,0.4-15.1-2.6
		c-4.6-3.2-6.3-9.1-6.9-14.6c-0.7-6.7-0.1-14,4-19.3c5.6-7.3,16-8.9,25-7.1c4.2,0.9,8.4,2.4,12.6,1.5c2.5-0.5,4.8-1.9,7-3.2l40-23.8
		c6.8-4.1,13.2-8.9,18.8-14.5c4.9-4.9,9.7-10.2,14.1-15.5C238.6,21.2,244,8.4,258.2,2.4"/>
	<path class="st0" d="M156.1,116.8c-0.4-0.9-0.8-1.7-1.2-2.6c1.2,1.1,2.4,2.3,3.6,3.4c-0.8-1-1.6-2.1-2.4-3.1
		c6.7,5.2,12.7,11.5,17.3,18.2c-2-4.1-4.5-8.2-7.4-12.1c3.8,3.1,7.8,5.9,11.9,8.3c-2.1-2.1-4.2-4.2-6.3-6.3c1.9,1.4,4.1,2.5,6.1,3.1
		c-8-5.8-12.2-14.9-18.8-22.3c-2-2.2-4.2-4.3-6.4-6.4c-2.8-2.5-5.6-5-8.7-7c-3.1-1.9-6.5-3.3-9.3-3.2c-1.8,0.1-3.3,0.8-4.7,1.5
		c-1.6,0.9-3.3,1.9-3.6,3.8c-0.2,1.2,0.1,2.6,0.4,4c0.6,3,7.2,0.8,10.5,3.3c2.1,1.6,4.7,3.9,7,4.6
		C150.4,106,150.2,111.1,156.1,116.8"/>
	<path class="st0" d="M160.1,81.7c-0.5,0.5-2.6,1.6-3.1,2.1c1.1-0.3,1.9-1.2,4.1-1.5c-0.9,0.4-2.4,1.4-3.3,1.8
		c6.3-0.6,12.2-3.8,17.4-6.6c-2.7,2.1-5.8,5.3-9,6.8c3.5-0.6,7-0.7,10.5-0.5c-2.1,0.6-4.1,1.1-6.2,1.7c1.7-0.2,3.5,0.1,5,0.6
		c-7.1,0.5-12.9,5.3-19.6,7.8c-2,0.7-4.2,1.2-6.3,1.7c-2.6,0.6-5.3,1.1-8,1.1c-2.6,0-5.3-0.6-7.1-2c-1.2-0.9-1.9-2.2-2.5-3.4
		c-0.8-1.4-1-0.5-0.6-2.2c0.3-1,0.7-1.4,1.8-1.6c4.1-0.8,4.3-0.8,7,0.3c2.7,1,2.7,1.2,6.1,0.8C151.4,87.9,152.8,83.4,160.1,81.7"/>
	<path class="st0" d="M114.8,124.9c1.5,1.1,3.6,1.6,5.4,1.1c-2.6-1.3-4.8-3.4-6.1-6c-0.3-0.6-0.6-1.4-0.3-2c0.3-0.6,0.9-0.8,1.5-1
		c1.6-0.6,3.2-1.1,4.8-1.7c-2.3-0.3-5.3-1.4-5.1-3.8c0.9,0.3,1.9-0.3,2.7-0.8c3-2,6-4,8.9-6c-1.2-0.4-2.5-0.8-3.4-1.7
		c-0.9-0.9-1.5-2.3-0.8-3.5c0.8-1.4,2.7-1.6,4.3-1.3c2.6,0.4,5.2,1.2,7.5,2.5c0.3-1.2-0.4-2.5-1.5-2.9c9,2.9,17.4,7.5,24.7,13.5
		c-1-1.7-2-3.4-2.9-5.1c0.3,1.2,1.5,1.9,2.5,2.6c3.5,2.1,7,4.2,10.5,6.3c-3.5-2.4-7-4.8-9.5-8.2c-1.5-1.9-2.6-4.1-4.1-6
		c-2.2-2.8-5-4.9-7.9-6.9c3.6,2.7,8,4.2,12.5,4.5c-3.9-2.4-7.9-4.9-11.8-7.3c-3.4-2.1-6.8-4.2-10.6-5.2c-2.9-0.7-5.9-0.8-8.8-0.9
		c-3.7-0.1-7.6-0.2-11.1,1c-5.7,1.9-9.8,7-12.3,12.4c-1.3,2.8-2.3,5.9-2.1,9c0.3,3.9,0.7,8.6,2.8,11.9c3.1,5,7.2,9.6,13.9,9.9
		C117.3,127.7,116,126.3,114.8,124.9"/>
	<path class="st2" d="M181.5,83.1c4.4,0.6,6.8,5.7,7.9,9.6c1.1,4.1-2.7,7.7-6.3,9.9c-13.4,8.6-29.4,16.5-44.4,21.9
		c-11.6,4.2-17.9,6.5-34,10.2c-2.2,0.5-4.2,1.5-6.4,1.9c-3.1,0.6-6.4,0.4-9.6,0.2c-26.7-1.5-53.6-1.2-80.2,0.9
		c0.7-0.8,1.4-1.6,2.2-2.3c-3.5-0.2-6.9-0.5-10.4-0.7c-0.1-1.1-0.2-2.1-0.3-3.2c29.4-5.3,59-10.7,88.9-11c5.5,0,11.1,0.1,16.5-0.9
		c6.3-1.2,12.3-3.8,18-6.7c13.7-6.9,26.5-15.6,38.1-25.7c1.7-1.5,11-4.4,13.3-4.1C176.3,83.3,179.4,82.8,181.5,83.1"/>
</g>
</svg>
